module test-sevice-go

go 1.21.3

require (
	github.com/joho/godotenv v1.5.1
	gorm.io/driver/postgres v1.5.4
	gorm.io/gorm v1.25.5
)

require (
	github.com/jackc/pgpassfile v1.0.0 // indirect
	github.com/jackc/pgservicefile v0.0.0-20221227161230-091c0ba34f0a // indirect
	github.com/jackc/pgx/v5 v5.4.3 // indirect
	github.com/jinzhu/inflection v1.0.0 // indirect
	github.com/jinzhu/now v1.1.5 // indirect
	github.com/lib/pq v1.10.9 // indirect
	golang.org/x/crypto v0.14.0 // indirect
	golang.org/x/text v0.13.0 // indirect
)
